{
    "labels": [
      "Rodney",
      "Hibiscus and Bays",
      "Upper Harbour",
      "Kaipatiki",
      "Devonport",
      "Takapuna",
      "Henderson-Massey",
      "Waitakere Ranges",
      "Great Barrier",
      "Waiheke",
      "Waitemata",
      "Whau",
      "Albert-Eden",
      "Puketapapa",
      "Orakei",
      "Maungakiekie-Tamaki",
      "Howick",
      "Mangere-Otahuhu",
      "Otara-Papatoetoe",
      "Manurewa",
      "Papakura",
      "Franklin"
    ],
    "datasets": [
      {
        "data": [
          57300,
          94000,
          56800,
          87000,
          58500,
          113500,
          50700,
          950,
          8630,
          81300,
          76700,
          100000,
          56300,
          83700,
          73700,
          135000,
          75300,
          80300,
          87000,
          48200,
          68300
        ],
        "label": "2013"
      }
    ]
  }