{
    "categorySelection": [
        {
            "value": "Total",
            "displayValue": "Total Population Change"
        },
        {
            "value": "naturalincrease",
            "displayValue": "Natural Increase"
        },
        {
            
            "value": "netmigration",
            "displayValue": "Net Migration"
        }
      
    ],
    "yearSelection": [
        "2015-2016"
    ]
}